// Jest Snapshot v1, https://goo.gl/fbAQLP

exports[`Creates component 1`] = `"One&lt;three"`;

exports[`Join with default joiner 1`] = `"1,2"`;

exports[`Join works with empty array 1`] = `""`;

exports[`Joins values 1`] = `"1:2"`;

exports[`Makes safe values 1`] = `"<a>"`;

exports[`Statically creates tag function 1`] = `[Function]`;
